root/model/dao/exceptions/NonexistentEntityException.class
root/dto/exceptions/PreexistingEntityException.class
root/controller/Controller.class
root/dto/exceptions/NonexistentEntityException.class
root/persistence/entities/MasterOxford.class
root/model/dao/MasterOxfordDAO.class
root/model/dao/exceptions/IllegalOrphanException.class
root/model/dao/exceptions/PreexistingEntityException.class
root/model/services/OxfordRest.class
root/dto/exceptions/IllegalOrphanException.class
root/model/services/AppConfig.class
